<svg width="77" height="32" viewBox="0 0 77 32" fill="none" xmlns="http://www.w3.org/2000/svg">
<path fill-rule="evenodd" clip-rule="evenodd" d="M25.9361 18.6504L26.9381 24.047C26.9967 24.3629 26.8351 24.6784 26.547 24.8102C26.2591 24.9425 25.9201 24.8564 25.7264 24.6021L24.6484 23.1868C22.5408 26.6608 19.2263 29.5697 15.4041 30.3242L13.9576 31.7965C13.691 32.0678 13.2588 32.0678 12.9917 31.7965L11.5453 30.3242C7.72303 29.5692 4.40902 26.6608 2.30146 23.1868L1.22348 24.6021C1.02975 24.8564 0.690815 24.9425 0.402839 24.8102C0.114863 24.6785 -0.0466972 24.363 0.0119437 24.0471L1.014 18.6504C1.05583 18.4268 1.2021 18.2379 1.40649 18.1451C1.61041 18.0517 1.84636 18.0667 2.03803 18.1839L6.65889 21.0193C6.92959 21.1853 7.05289 21.5184 6.95758 21.8245C6.86274 22.1312 6.57377 22.3308 6.25879 22.3085L4.45396 22.1804C6.17718 24.5379 8.77102 25.5054 11.7461 25.7534V10.3147H10.2603C10.0207 10.4962 9.72622 10.6073 9.40462 10.6073C8.60899 10.6073 7.96368 9.95088 7.96368 9.14102C7.96368 8.33062 8.60899 7.6743 9.40462 7.6743C9.72675 7.6743 10.0213 7.78586 10.2609 7.96743H11.7461V5.84701C10.9006 5.27477 10.3409 4.29837 10.3409 3.19019C10.3409 1.43142 11.7471 0 13.4751 0C15.203 0 16.6091 1.43142 16.609 3.19019C16.609 4.29837 16.0494 5.27477 15.2038 5.84701V7.96736H16.6891C16.9287 7.7858 17.2233 7.67423 17.5454 7.67423C18.3411 7.67423 18.9864 8.33055 18.9864 9.14095C18.9864 9.95088 18.3411 10.6072 17.5454 10.6072C17.2239 10.6072 16.9293 10.4962 16.6897 10.3146H15.2039V25.7533C18.179 25.5054 20.7729 24.5378 22.4962 22.1803L20.6913 22.3084C20.3763 22.3307 20.0874 22.1311 19.9925 21.8244C19.8972 21.5183 20.0205 21.1852 20.2912 21.0192L24.912 18.1839C25.1036 18.0667 25.3397 18.0516 25.5436 18.145C25.748 18.2378 25.8942 18.4267 25.9361 18.6504ZM14.3033 3.19019C14.3033 2.72534 13.9318 2.34712 13.4751 2.34712C13.0184 2.34712 12.6468 2.72534 12.6467 3.19019C12.6467 3.65505 13.0184 4.03326 13.4751 4.03326C13.9318 4.03326 14.3033 3.65505 14.3033 3.19019Z" fill="#F56A75"/>
<path fill-rule="evenodd" clip-rule="evenodd" d="M44.0782 13.6937L44.0958 13.7462C44.1192 15.0354 43.6995 16.0839 42.8369 16.8919C41.9742 17.6998 40.806 18.1037 39.3321 18.1037C37.8408 18.1037 36.6287 17.6035 35.6958 16.6031C34.763 15.6027 34.2966 14.3237 34.2966 12.7662V10.3425C34.2966 8.79081 34.7571 7.51187 35.6783 6.50561C36.5994 5.49936 37.7969 4.99624 39.2707 4.99624C40.7797 4.99624 41.9684 5.39144 42.8369 6.18186C43.7054 6.97228 44.1279 8.0354 44.1045 9.37124L44.087 9.42374H42.0254C42.0254 8.56623 41.7929 7.89832 41.328 7.41999C40.863 6.94165 40.1773 6.70249 39.2707 6.70249C38.3993 6.70249 37.7077 7.04665 37.196 7.73499C36.6842 8.42333 36.4284 9.28665 36.4284 10.325V12.7662C36.4284 13.8162 36.6901 14.6854 37.2135 15.3737C37.737 16.0621 38.4432 16.4062 39.3321 16.4062C40.2153 16.4062 40.8849 16.17 41.3411 15.6975C41.7973 15.225 42.0254 14.5571 42.0254 13.6937H44.0782ZM45.517 13.0987C45.517 11.6929 45.903 10.5379 46.675 9.63374C47.4587 8.72957 48.5202 8.27749 49.8595 8.27749C51.2222 8.27749 52.2896 8.72957 53.0616 9.63374C53.8394 10.5321 54.2283 11.6871 54.2283 13.0987V13.2825C54.2283 14.7058 53.8394 15.8667 53.0616 16.765C52.2896 17.6575 51.2281 18.1037 49.877 18.1037C48.5202 18.1037 47.4528 17.6546 46.675 16.7562C45.903 15.8579 45.517 14.7 45.517 13.2825V13.0987ZM47.6488 13.2825C47.6488 14.2042 47.8301 14.9567 48.1927 15.54C48.5494 16.1175 49.1109 16.4062 49.877 16.4062C50.6198 16.4062 51.1754 16.1175 51.5439 15.54C51.9182 14.9567 52.1053 14.2042 52.1053 13.2825V13.0987C52.1053 12.1946 51.9182 11.4508 51.5439 10.8675C51.1754 10.2783 50.614 9.98374 49.8595 9.98374C49.1167 9.98374 48.5611 10.2783 48.1927 10.8675C47.8301 11.4567 47.6488 12.2004 47.6488 13.0987V13.2825ZM55.6934 13.3175C55.6934 11.8066 56.018 10.589 56.6672 9.66436C57.3164 8.73978 58.2287 8.27749 59.4043 8.27749C59.919 8.27749 60.3795 8.38103 60.786 8.58811C61.1925 8.7952 61.5448 9.09124 61.8431 9.47624V4.26999H63.9749V17.92H62.1853L61.9747 16.7475C61.6706 17.1908 61.3051 17.5277 60.8781 17.7581C60.4512 17.9885 59.954 18.1037 59.3867 18.1037C58.2229 18.1037 57.3164 17.6808 56.6672 16.835C56.018 15.9892 55.6934 14.8779 55.6934 13.5012V13.3175ZM57.8252 13.5012C57.8252 14.3762 57.9933 15.0733 58.3296 15.5925C58.6659 16.1117 59.1996 16.3712 59.9307 16.3712C60.381 16.3712 60.7626 16.275 61.0755 16.0825C61.3884 15.89 61.6443 15.6158 61.8431 15.26V11.13C61.6443 10.78 61.3869 10.5073 61.0711 10.3119C60.7553 10.1164 60.381 10.0187 59.9482 10.0187C59.223 10.0187 58.6878 10.3235 58.3428 10.9331C57.9977 11.5427 57.8252 12.3375 57.8252 13.3175V13.5012ZM70.3352 18.1037C68.99 18.1037 67.9183 17.6648 67.1199 16.7869C66.3216 15.9089 65.9225 14.7817 65.9225 13.405V13.055C65.9225 11.6783 66.3187 10.5365 67.1112 9.62936C67.9037 8.72228 68.8964 8.27166 70.0895 8.27749C71.3704 8.27749 72.3515 8.66394 73.0328 9.43686C73.7142 10.2098 74.0548 11.2466 74.0548 12.5475V13.7987H68.1332L68.1157 13.8425C68.1508 14.595 68.3715 15.2104 68.778 15.6887C69.1845 16.1671 69.7474 16.4062 70.4668 16.4062C71.0399 16.4062 71.5312 16.3362 71.9406 16.1962C72.35 16.0562 72.7448 15.855 73.1249 15.5925L73.8092 16.9837C73.4524 17.2987 72.9787 17.5642 72.388 17.78C71.7973 17.9958 71.113 18.1037 70.3352 18.1037ZM70.0895 9.98374C69.5632 9.98374 69.1304 10.1923 68.7912 10.6094C68.452 11.0264 68.2414 11.5558 68.1595 12.1975L68.1771 12.2412H71.9406V12.0225C71.9406 11.4217 71.7871 10.9317 71.48 10.5525C71.173 10.1733 70.7095 9.98374 70.0895 9.98374Z" fill="#0E3757"/>
<path opacity="0.5" fill-rule="evenodd" clip-rule="evenodd" d="M38.3471 22.7913H36.6928V27.52H35.7792V22.7913H34.1249V22.06H38.3471V22.7913ZM50.07 25.0638H47.6751V26.7925H50.4535V27.52H46.7614V22.06H50.4272V22.7913H47.6751V24.3325H50.07V25.0638ZM61.8907 26.1175C61.8907 25.89 61.8062 25.7038 61.637 25.5588C61.4678 25.4138 61.1689 25.2838 60.7403 25.1688C60.1287 25.0088 59.6581 24.7969 59.3285 24.5331C58.9989 24.2694 58.8341 23.9238 58.8341 23.4963C58.8341 23.0563 59.0164 22.6938 59.3811 22.4088C59.7458 22.1238 60.2164 21.9813 60.7929 21.9813C61.3945 21.9813 61.8776 22.1425 62.2423 22.465C62.607 22.7875 62.7831 23.175 62.7705 23.6275L62.763 23.65H61.887C61.887 23.37 61.7917 23.1431 61.6012 22.9694C61.4107 22.7956 61.1388 22.7088 60.7854 22.7088C60.452 22.7088 60.1957 22.7813 60.0165 22.9263C59.8373 23.0713 59.7477 23.2588 59.7477 23.4888C59.7477 23.6963 59.8448 23.8688 60.0391 24.0063C60.2333 24.1438 60.5548 24.2738 61.0034 24.3963C61.5925 24.5538 62.0399 24.7713 62.3457 25.0488C62.6515 25.3263 62.8044 25.68 62.8044 26.11C62.8044 26.565 62.622 26.9269 62.2573 27.1956C61.8926 27.4644 61.4133 27.5988 60.8192 27.5988C60.2477 27.5988 59.7464 27.4481 59.3153 27.1469C58.8842 26.8456 58.6749 26.4325 58.6874 25.9075L58.6949 25.885H59.5747C59.5747 26.2175 59.69 26.4656 59.9206 26.6294C60.1512 26.7931 60.4508 26.875 60.8192 26.875C61.1576 26.875 61.4208 26.8069 61.6088 26.6706C61.7968 26.5344 61.8907 26.35 61.8907 26.1175ZM75.2078 22.7913H73.5535V27.52H72.6399V22.7913H70.9856V22.06H75.2078V22.7913Z" fill="#0E3757"/>
</svg>
