<svg width="150" height="150" viewBox="0 0 150 150" fill="none" xmlns="http://www.w3.org/2000/svg">
<path opacity="0.332824" fill-rule="evenodd" clip-rule="evenodd" d="M75 150C116.421 150 150 116.421 150 75C150 33.5786 116.421 0 75 0C33.5786 0 0 33.5786 0 75C0 116.421 33.5786 150 75 150Z" fill="#8D9CA8"/>
<path fill-rule="evenodd" clip-rule="evenodd" d="M99.055 112.939L88.3562 128.476C87.7299 129.385 86.573 129.762 85.5571 129.386C84.5404 129.013 83.9317 127.986 84.082 126.9L84.9201 120.858C71.3885 124.214 56.317 123.284 45.2568 115.892L38.1866 115.979C36.8833 115.995 35.8402 114.952 35.855 113.647L35.9422 106.577C28.5509 95.5157 27.6208 80.4466 30.9775 66.9151L24.9352 67.7532C23.8495 67.9036 22.8219 67.2949 22.4486 66.278C22.0736 65.2627 22.4505 64.1058 23.3599 63.4795L38.8962 52.7809C39.5409 52.3382 40.3529 52.2322 41.072 52.4999C41.7912 52.7652 42.3242 53.3713 42.5019 54.1189L46.7643 72.1649C47.0142 73.2218 46.5021 74.3292 45.5281 74.8431C44.5537 75.3596 43.371 75.1472 42.6648 74.3327L38.6197 69.6646C37.049 79.5546 40.9583 88.1676 47.537 95.9518L85.0636 58.4252L81.4772 54.8388C80.4575 54.7018 79.4767 54.2607 78.7004 53.4844C76.7799 51.5639 76.8176 48.4107 78.7861 46.4422C80.756 44.4724 83.909 44.4348 85.8295 46.3553C86.6071 47.1329 87.0469 48.115 87.1839 49.1347L90.769 52.7198L95.9231 47.5657C95.273 44.1338 96.2954 40.4095 98.989 37.7159C103.264 33.4409 110.138 33.3561 114.309 37.5271C118.48 41.698 118.395 48.5716 114.12 52.8464C111.426 55.54 107.702 56.5626 104.27 55.9123L99.1158 61.0662L102.701 64.6515C103.721 64.7885 104.703 65.2285 105.481 66.006C107.401 67.9266 107.364 71.0796 105.394 73.0494C103.425 75.0181 100.272 75.0557 98.3515 73.1352C97.5752 72.3589 97.1341 71.378 96.9971 70.3584L93.4105 66.7718L55.8839 104.298C63.6683 110.877 72.2813 114.787 82.1714 113.216L77.5033 109.171C76.6886 108.465 76.4765 107.282 76.9928 106.307C77.5068 105.333 78.6142 104.822 79.6712 105.071L97.717 109.334C98.4644 109.511 99.0707 110.044 99.336 110.764C99.6037 111.483 99.4977 112.295 99.055 112.939ZM108.554 47.2805C109.684 46.1506 109.706 44.3345 108.604 43.2322C107.501 42.1298 105.685 42.1522 104.555 43.2819C103.425 44.4119 103.403 46.2283 104.505 47.3306C105.608 48.433 107.424 48.4105 108.554 47.2805Z" fill="#0E3757"/>
</svg>
