<svg width="30" height="20" viewBox="0 0 30 20" fill="none" xmlns="http://www.w3.org/2000/svg">
<path fill-rule="evenodd" clip-rule="evenodd" d="M9.91071 0V1.58915C7.6658 2.77778 6.05868 4.01808 5.08929 5.31008C4.11989 6.60207 3.6352 8.01033 3.6352 9.53488C3.6352 10.4393 3.76275 11.0594 4.01786 11.3953C4.24745 11.7571 4.52806 11.938 4.85969 11.938C5.19133 11.938 5.63775 11.8411 6.19898 11.6473C6.76021 11.4535 7.27041 11.3566 7.72959 11.3566C8.77552 11.3566 9.6875 11.7506 10.4656 12.5388C11.2436 13.3269 11.6327 14.2894 11.6327 15.4264C11.6327 16.6667 11.1607 17.7326 10.2168 18.624C9.27295 19.5155 8.0995 19.9612 6.69643 19.9612C4.98724 19.9612 3.44388 19.2119 2.06633 17.7132C0.688769 16.2145 0 14.3669 0 12.1705C0 9.58655 0.848206 7.17701 2.54464 4.94186C4.24108 2.70671 6.69641 1.05944 9.91071 0ZM28.1633 0.116279V1.58915C25.5867 3.08786 23.8903 4.43152 23.074 5.62015C22.2577 6.80879 21.8495 8.20413 21.8495 9.8062C21.8495 10.5297 21.9898 11.0723 22.2704 11.4341C22.551 11.7959 22.8444 11.9767 23.1505 11.9767C23.4311 11.9767 23.852 11.8734 24.4133 11.6667C24.9745 11.4599 25.5357 11.3566 26.0969 11.3566C27.1429 11.3566 28.0548 11.7377 28.8329 12.5C29.611 13.2623 30 14.199 30 15.3101C30 16.5762 29.5089 17.6744 28.5268 18.6047C27.5446 19.5349 26.3393 20 24.9107 20C23.227 20 21.7092 19.2636 20.3571 17.7907C19.0051 16.3178 18.3291 14.4832 18.3291 12.2868C18.3291 9.57363 19.1837 7.09949 20.8929 4.86434C22.6021 2.62919 25.0255 1.04652 28.1633 0.116279Z" fill="#F56A75"/>
</svg>
